{
  "author_ids": [
    "a.o7wH7DwyWp0wB08L", 
    "a.QofKLohRId7FzDlS", 
    "a.pAzrLriFIdBGUAP3", 
    "a.Zztzi4MabNGIvyaR", 
    "a.uhG3EnFDbHKox6J0", 
    "a.oup1eLJR7Eo8JM2T", 
    "a.DIeqdmsI9egAmib6", 
    "a.plmFoENLcOnVT7e2", 
    "a.iEykHviT8Q31UT2H", 
    "a.1mNgK5ilhtUOGJye", 
    "a.2BKRLKBr7ENA2Rl5", 
    "a.IcnwMK4CBGRpZnLx", 
    "a.Hovbg8QxEsMDt5I0", 
    "a.hrKRSreQCPcjUoYd", 
    "a.479YVd6veU16ejY7", 
    "a.xTGHQV8PM8y0wZ3m", 
    "a.EwumJ7RAsOCQ2jUJ"
  ], 
  "lastedited_iso": "2016-10-24T11:19:49", 
  "group": "", 
  "padid": "brian-house", 
  "versions": [
    {
      "url": "/pad/p/brian-house", 
      "code": 200, 
      "type": "pad"
    }, 
    {
      "url": "/var/www/etherdump/brian-house.raw.txt", 
      "path": "/var/www/etherdump/brian-house.raw.txt", 
      "code": 200, 
      "type": "text"
    }, 
    {
      "url": "/var/www/etherdump/brian-house.diff.html", 
      "path": "/var/www/etherdump/brian-house.diff.html", 
      "code": 200, 
      "type": "diffhtml"
    }, 
    {
      "url": "/var/www/etherdump/brian-house.raw.html", 
      "path": "/var/www/etherdump/brian-house.raw.html", 
      "code": 200, 
      "type": "html"
    }, 
    {
      "url": "/var/www/etherdump/brian-house.meta.json", 
      "path": "/var/www/etherdump/brian-house.meta.json", 
      "type": "meta"
    }
  ], 
  "lastedited_raw": 1477300789491, 
  "pad": "brian-house", 
  "pathbase": "/var/www/etherdump/brian-house", 
  "revisions": 2595
}