{
  "author_ids": [
    "a.NaEf7egxLCdae4WE", 
    "a.nbPTuXVFAm2ud9Hh", 
    "a.1mNgK5ilhtUOGJye", 
    "a.pAzrLriFIdBGUAP3", 
    "a.xTGHQV8PM8y0wZ3m", 
    "a.k6uMCSl1CGkjuZJn", 
    "a.2BKRLKBr7ENA2Rl5"
  ], 
  "lastedited_iso": "2016-10-26T16:13:24", 
  "group": "", 
  "padid": "interviewwithetherbox", 
  "versions": [
    {
      "url": "/pad/p/interviewwithetherbox", 
      "code": 200, 
      "type": "pad"
    }, 
    {
      "url": "/var/www/etherdump/interviewwithetherbox.raw.txt", 
      "path": "/var/www/etherdump/interviewwithetherbox.raw.txt", 
      "code": 200, 
      "type": "text"
    }, 
    {
      "url": "/var/www/etherdump/interviewwithetherbox.diff.html", 
      "path": "/var/www/etherdump/interviewwithetherbox.diff.html", 
      "code": 200, 
      "type": "diffhtml"
    }, 
    {
      "url": "/var/www/etherdump/interviewwithetherbox.raw.html", 
      "path": "/var/www/etherdump/interviewwithetherbox.raw.html", 
      "code": 200, 
      "type": "html"
    }, 
    {
      "url": "/var/www/etherdump/interviewwithetherbox.meta.json", 
      "path": "/var/www/etherdump/interviewwithetherbox.meta.json", 
      "type": "meta"
    }
  ], 
  "lastedited_raw": 1477491204944, 
  "pad": "interviewwithetherbox", 
  "pathbase": "/var/www/etherdump/interviewwithetherbox", 
  "revisions": 4350
}