{
  "author_ids": [
    "a.jpVTsnaLWltNS9j5", 
    "a.xTGHQV8PM8y0wZ3m", 
    "a.iEykHviT8Q31UT2H", 
    "a.oup1eLJR7Eo8JM2T", 
    "a.o7wH7DwyWp0wB08L", 
    "a.jmm5ferakv7auir9", 
    "a.LuR4Vp2QsKTSYngA", 
    "a.IcnwMK4CBGRpZnLx", 
    "a.Zztzi4MabNGIvyaR", 
    "a.1mNgK5ilhtUOGJye", 
    "a.uhG3EnFDbHKox6J0", 
    "a.iM2fCRtsanN6aUkk", 
    "a.2BKRLKBr7ENA2Rl5", 
    "a.pAzrLriFIdBGUAP3", 
    "a.EwumJ7RAsOCQ2jUJ"
  ], 
  "lastedited_iso": "2016-10-26T11:17:51", 
  "group": "", 
  "padid": "mayaganesh", 
  "versions": [
    {
      "url": "/pad/p/mayaganesh", 
      "code": 200, 
      "type": "pad"
    }, 
    {
      "url": "/var/www/etherdump/mayaganesh.raw.txt", 
      "path": "/var/www/etherdump/mayaganesh.raw.txt", 
      "code": 200, 
      "type": "text"
    }, 
    {
      "url": "/var/www/etherdump/mayaganesh.diff.html", 
      "path": "/var/www/etherdump/mayaganesh.diff.html", 
      "code": 200, 
      "type": "diffhtml"
    }, 
    {
      "url": "/var/www/etherdump/mayaganesh.raw.html", 
      "path": "/var/www/etherdump/mayaganesh.raw.html", 
      "code": 200, 
      "type": "html"
    }, 
    {
      "url": "/var/www/etherdump/mayaganesh.meta.json", 
      "path": "/var/www/etherdump/mayaganesh.meta.json", 
      "type": "meta"
    }
  ], 
  "lastedited_raw": 1477473471375, 
  "pad": "mayaganesh", 
  "pathbase": "/var/www/etherdump/mayaganesh", 
  "revisions": 2983
}